[
 {
  "table":"SMODILOG",
  "data":
  [
   {
    "OBJ_TYPE":"PROG",
    "OBJ_NAME":"GCTS_GITLAB_DEPHIS_H001",
    "SUB_TYPE":"PROG",
    "SUB_NAME":"GCTS_GITLAB_DEPHIS_H001",
    "INT_TYPE":"",
    "INT_NAME":"",
    "OPERATION":"ALL",
    "MAIN_PROG":"",
    "INCLUDE":"",
    "MOD_NAME":"",
    "MOD_LANGU":"",
    "MOD_USER":"XUHENR0",
    "MOD_DATE":"2022-09-13",
    "MOD_TIME":"07:27:13",
    "ACTIVE":"",
    "INACTIVE":"",
    "UPGRADE":"",
    "PRE_CORR":"",
    "PROT_ONLY":"X",
    "UPG_MODE":"",
    "MARK":"",
    "SPAU":"",
    "TRKORR":"",
    "SPAU_CODE":""
   },
   {
    "OBJ_TYPE":"PROG",
    "OBJ_NAME":"GCTS_GITLAB_DEPHIS_H001",
    "SUB_TYPE":"REPS",
    "SUB_NAME":"GCTS_GITLAB_DEPHIS_H001",
    "INT_TYPE":"",
    "INT_NAME":"",
    "OPERATION":"ALL",
    "MAIN_PROG":"",
    "INCLUDE":"",
    "MOD_NAME":"",
    "MOD_LANGU":"",
    "MOD_USER":"XUHENR0",
    "MOD_DATE":"2022-09-13",
    "MOD_TIME":"07:29:13",
    "ACTIVE":"",
    "INACTIVE":"",
    "UPGRADE":"",
    "PRE_CORR":"",
    "PROT_ONLY":"X",
    "UPG_MODE":"",
    "MARK":"",
    "SPAU":"",
    "TRKORR":"H18K002362",
    "SPAU_CODE":""
   },
   {
    "OBJ_TYPE":"PROG",
    "OBJ_NAME":"GCTS_GITLAB_DEPHIS_H001",
    "SUB_TYPE":"REPT",
    "SUB_NAME":"GCTS_GITLAB_DEPHIS_H001",
    "INT_TYPE":"",
    "INT_NAME":"",
    "OPERATION":"ALL",
    "MAIN_PROG":"",
    "INCLUDE":"",
    "MOD_NAME":"",
    "MOD_LANGU":"",
    "MOD_USER":"XUHENR0",
    "MOD_DATE":"2022-09-13",
    "MOD_TIME":"07:27:13",
    "ACTIVE":"",
    "INACTIVE":"",
    "UPGRADE":"",
    "PRE_CORR":"",
    "PROT_ONLY":"X",
    "UPG_MODE":"",
    "MARK":"",
    "SPAU":"",
    "TRKORR":"",
    "SPAU_CODE":""
   }
  ]
 },
 {
  "table":"TADIR",
  "data":
  [
   {
    "PGMID":"R3TR",
    "OBJECT":"PROG",
    "OBJ_NAME":"GCTS_GITLAB_DEPHIS_H001",
    "KORRNUM":"",
    "SRCSYSTEM":"...",
    "AUTHOR":"XUHENR0",
    "SRCDEP":"",
    "DEVCLASS":"CHARM_TEST_E",
    "GENFLAG":"",
    "EDTFLAG":"",
    "CPROJECT":" L",
    "MASTERLANG":"E",
    "VERSID":"",
    "PAKNOCHECK":"",
    "OBJSTABLTY":"",
    "COMPONENT":"",
    "CRELEASE":"",
    "DELFLAG":"",
    "TRANSLTTXT":"",
    "CREATED_ON":"2022-09-13",
    "CHECK_DATE":"",
    "CHECK_CFG":""
   }
  ]
 },
 {
  "table":"TRDIR",
  "data":
  [
   {
    "NAME":"GCTS_GITLAB_DEPHIS_H001",
    "VARCL":"X",
    "SUBC":"1",
    "UNAM":"XUHENR0",
    "RMAND":"800",
    "RLOAD":"E",
    "FIXPT":"X",
    "UCCHECK":"X"
   }
  ]
 },
 {
  "table":"TRDIRT",
  "data":
  [
   {
    "NAME":"GCTS_GITLAB_DEPHIS_H001",
    "SPRSL":"E",
    "TEXT":" t"
   }
  ]
 }
]